<mxfile host="65bd71144e">
    <diagram id="DLnZALV0V4O_M8rXYkyH" name="第 1 页">
        <mxGraphModel dx="1084" dy="647" grid="1" gridSize="10" guides="1" tooltips="1" connect="1" arrows="1" fold="1" page="1" pageScale="1" pageWidth="827" pageHeight="1169" math="0" shadow="0">
            <root>
                <mxCell id="0"/>
                <mxCell id="1" parent="0"/>
                <mxCell id="2" value="用户管理&lt;br&gt;资源类型 用户(users)" style="rounded=0;whiteSpace=wrap;html=1;" vertex="1" parent="1">
                    <mxGeometry x="320" y="220" width="260" height="60" as="geometry"/>
                </mxCell>
                <mxCell id="3" value="文章管理&lt;br&gt;资源类型 文章(blogs)" style="rounded=0;whiteSpace=wrap;html=1;" vertex="1" parent="1">
                    <mxGeometry x="610" y="220" width="180" height="60" as="geometry"/>
                </mxCell>
                <mxCell id="5" value="1. id&lt;br&gt;2. username&lt;br&gt;3. nickname&lt;br&gt;3. password&lt;br&gt;4. role (读者/作者)&lt;br&gt;&lt;br&gt;方法:&lt;br&gt;CheckPassword" style="rounded=0;whiteSpace=wrap;html=1;" vertex="1" parent="1">
                    <mxGeometry x="320" y="300" width="260" height="150" as="geometry"/>
                </mxCell>
                <mxCell id="7" value="登录管理&lt;br&gt;资源类型 访问令牌(tokens)" style="rounded=0;whiteSpace=wrap;html=1;" vertex="1" parent="1">
                    <mxGeometry x="20" y="220" width="260" height="60" as="geometry"/>
                </mxCell>
                <mxCell id="8" value="1. acess_token: 令牌&lt;br&gt;2. username: 颁发人&lt;br&gt;3. issuse_at: 颁发时间&lt;br&gt;4. acess_expired_at: at多少秒后失效&lt;br&gt;5. refresh_expired_at: rt多少秒后失效&lt;br&gt;5. refresh_token: 刷新Token&lt;br&gt;4. nicename&lt;br&gt;5. role (读者/作者)" style="rounded=0;whiteSpace=wrap;html=1;" vertex="1" parent="1">
                    <mxGeometry x="20" y="300" width="260" height="150" as="geometry"/>
                </mxCell>
                <mxCell id="9" value="令牌颁发: 登录" style="rounded=0;whiteSpace=wrap;html=1;" vertex="1" parent="1">
                    <mxGeometry x="20" y="130" width="120" height="30" as="geometry"/>
                </mxCell>
                <mxCell id="10" value="令牌撤销: 退出" style="rounded=0;whiteSpace=wrap;html=1;" vertex="1" parent="1">
                    <mxGeometry x="20" y="170" width="120" height="30" as="geometry"/>
                </mxCell>
                <mxCell id="12" style="edgeStyle=orthogonalEdgeStyle;html=1;exitX=1;exitY=0.3333333333333333;exitDx=0;exitDy=0;exitPerimeter=0;entryX=1;entryY=0.5;entryDx=0;entryDy=0;" edge="1" parent="1" source="11" target="3">
                    <mxGeometry relative="1" as="geometry">
                        <mxPoint x="730" y="190" as="targetPoint"/>
                        <Array as="points">
                            <mxPoint x="810" y="70"/>
                            <mxPoint x="810" y="250"/>
                        </Array>
                    </mxGeometry>
                </mxCell>
                <mxCell id="13" value="Token" style="edgeLabel;html=1;align=center;verticalAlign=middle;resizable=0;points=[];" vertex="1" connectable="0" parent="12">
                    <mxGeometry x="0.058" relative="1" as="geometry">
                        <mxPoint x="-20" y="3" as="offset"/>
                    </mxGeometry>
                </mxCell>
                <mxCell id="11" value="Actor" style="shape=umlActor;verticalLabelPosition=bottom;verticalAlign=top;html=1;outlineConnect=0;" vertex="1" parent="1">
                    <mxGeometry x="760" y="50" width="30" height="60" as="geometry"/>
                </mxCell>
                <mxCell id="14" value="令牌校验: 内部接口" style="rounded=0;whiteSpace=wrap;html=1;" vertex="1" parent="1">
                    <mxGeometry x="160" y="170" width="120" height="30" as="geometry"/>
                </mxCell>
                <mxCell id="16" value="外部接口: HTTP&amp;nbsp;" style="text;html=1;strokeColor=none;fillColor=none;align=center;verticalAlign=middle;whiteSpace=wrap;rounded=0;" vertex="1" parent="1">
                    <mxGeometry x="15" y="80" width="130" height="30" as="geometry"/>
                </mxCell>
                <mxCell id="17" value="内部接口: 其他模块使用&amp;nbsp;" style="text;html=1;strokeColor=none;fillColor=none;align=center;verticalAlign=middle;whiteSpace=wrap;rounded=0;" vertex="1" parent="1">
                    <mxGeometry x="155" y="80" width="145" height="30" as="geometry"/>
                </mxCell>
                <mxCell id="18" value="用户查询" style="rounded=0;whiteSpace=wrap;html=1;" vertex="1" parent="1">
                    <mxGeometry x="320" y="170" width="120" height="30" as="geometry"/>
                </mxCell>
                <mxCell id="19" value="用户创建" style="rounded=0;whiteSpace=wrap;html=1;" vertex="1" parent="1">
                    <mxGeometry x="320" y="130" width="120" height="30" as="geometry"/>
                </mxCell>
                <mxCell id="20" value="修改密码" style="rounded=0;whiteSpace=wrap;html=1;" vertex="1" parent="1">
                    <mxGeometry x="320" y="90" width="120" height="30" as="geometry"/>
                </mxCell>
                <mxCell id="21" value="文章查询" style="rounded=0;whiteSpace=wrap;html=1;" vertex="1" parent="1">
                    <mxGeometry x="610" y="170" width="120" height="30" as="geometry"/>
                </mxCell>
                <mxCell id="22" value="文章删除" style="rounded=0;whiteSpace=wrap;html=1;" vertex="1" parent="1">
                    <mxGeometry x="610" y="130" width="120" height="30" as="geometry"/>
                </mxCell>
                <mxCell id="23" value="文章修改" style="rounded=0;whiteSpace=wrap;html=1;" vertex="1" parent="1">
                    <mxGeometry x="610" y="90" width="120" height="30" as="geometry"/>
                </mxCell>
                <mxCell id="24" value="文章创建" style="rounded=0;whiteSpace=wrap;html=1;" vertex="1" parent="1">
                    <mxGeometry x="610" y="50" width="120" height="30" as="geometry"/>
                </mxCell>
                <mxCell id="25" value="1. id&lt;br&gt;2. 作者&lt;br&gt;3. 创建者&lt;br&gt;4. 标题&lt;br&gt;5. 发布事件&lt;br&gt;6. 概要&lt;br&gt;7. Markdown内容&lt;br&gt;&lt;br&gt;方法:&lt;br&gt;CheckPassword" style="rounded=0;whiteSpace=wrap;html=1;" vertex="1" parent="1">
                    <mxGeometry x="610" y="290" width="180" height="150" as="geometry"/>
                </mxCell>
            </root>
        </mxGraphModel>
    </diagram>
</mxfile>